{
    "total_results": 62,
    "page": 2,
    "total_pages": 4,
    "results": [
        {
            "video": false,
            "id": 206647,
            "popularity": 36.018,
            "overview": "A cryptic message from Bond’s past sends him on a trail to uncover a sinister organization. While M battles political forces to keep the secret service alive, Bond peels back the layers of deceit to reveal the terrible truth behind SPECTRE.",
            "release_date": "2015-10-26",
            "adult": false,
            "backdrop_path": "/n1VZsWIi4missUgUXRfCG9HXFKe.jpg",
            "vote_count": 7953,
            "genre_ids": [
                28,
                12,
                53
            ],
            "original_language": "en",
            "title": "Spectre",
            "original_title": "Spectre",
            "poster_path": "/672kUEMtTHcaVYSVY4eiHEliHFa.jpg",
            "vote_average": 6.5
        },
        {
            "video": false,
            "id": 37724,
            "popularity": 29.438,
            "overview": "When Bond's latest assignment goes gravely wrong and agents around the world are exposed, MI6 is attacked forcing M to relocate the agency. These events cause her authority and position to be challenged by Gareth Mallory, the new Chairman of the Intelligence and Security Committee. With MI6 now compromised from both inside and out, M is left with one ally she can trust: Bond. 007 takes to the shadows - aided only by field agent, Eve - following a trail to the mysterious Silva, whose lethal and hidden motives have yet to reveal themselves.",
            "release_date": "2012-10-25",
            "adult": false,
            "backdrop_path": "/hoQhlAskVNgLQhArnH7reWP4pUp.jpg",
            "vote_count": 12068,
            "genre_ids": [
                28,
                12,
                53
            ],
            "original_language": "en",
            "title": "Skyfall",
            "original_title": "Skyfall",
            "poster_path": "/izrHg2UzxG3YXTBcKFaUbYp9LWA.jpg",
            "vote_average": 7.2
        },
        {
            "video": false,
            "id": 646,
            "popularity": 27.453,
            "overview": "In the film that launched the James Bond saga, Agent 007 battles mysterious Dr. No, a scientific genius bent on destroying the U.S. space program. As the countdown to disaster begins, Bond must go to Jamaica, where he encounters beautiful Honey Ryder, to confront a megalomaniacal villain in his massive island headquarters.",
            "release_date": "1962-10-07",
            "adult": false,
            "backdrop_path": "/moZEYnivAe9LDC3yFPDzj3WX3es.jpg",
            "vote_count": 2264,
            "genre_ids": [
                12,
                28,
                53
            ],
            "vote_average": 7,
            "original_language": "en",
            "original_title": "Dr. No",
            "poster_path": "/E0J8HxoDFA8f9TS5c6e6thsszz.jpg",
            "title": "Dr. No"
        },
        {
            "video": false,
            "id": 710,
            "popularity": 24.873,
            "vote_count": 2574,
            "release_date": "1995-11-16",
            "adult": false,
            "backdrop_path": "/mRCbnW0etR9UcL7OFFZudTAf56y.jpg",
            "vote_average": 6.9,
            "genre_ids": [
                12,
                28,
                53
            ],
            "overview": "When a powerful satellite system falls into the hands of Alec Trevelyan, AKA Agent 006, a former ally-turned-enemy, only James Bond can save the world from an awesome space weapon that -- in one short pulse -- could destroy the earth! As Bond squares off against his former compatriot, he also battles Trevelyan's stunning ally, Xenia Onatopp, an assassin who uses pleasure as her ultimate weapon.",
            "original_language": "en",
            "original_title": "GoldenEye",
            "poster_path": "/bFzjdy6ucvNlXmJwoSoYfufV6lP.jpg",
            "title": "GoldenEye"
        },
        {
            "video": false,
            "vote_average": 7.5,
            "popularity": 32.412,
            "adult": false,
            "backdrop_path": "/c2gcLDxniE0lNmT2a7CcQVuW6En.jpg",
            "vote_count": 7556,
            "genre_ids": [
                12,
                28,
                53
            ],
            "original_language": "en",
            "original_title": "Casino Royale"
        },
        {
            "video": false,
            "vote_average": 7.4,
            "popularity": 20.339,
            "overview": "Special agent 007 comes face to face with one of the most notorious villains of all time, and now he must outwit and outgun the powerful tycoon to prevent him from cashing in on a devious scheme to raid Fort Knox -- and obliterate the world's economy.",
            "release_date": "1964-09-20",
            "adult": false,
            "backdrop_path": "/lh65Y0sUQcRh5UVVgnTOfMUbN2c.jpg",
            "original_language": "en",
            "genre_ids": [
                12,
                28,
                53
            ],
            "vote_count": 2312,
            "title": "Goldfinger",
            "original_title": "Goldfinger",
            "poster_path": "/hsHVGBINg9bactVjE91wFBgd51J.jpg",
            "id": 658
        },
        {
            "video": false,
            "vote_average": 6.3,
            "popularity": 28.479,
            "overview": "Quantum of Solace continues the adventures of James Bond after Casino Royale. Betrayed by Vesper, the woman he loved, 007 fights the urge to make his latest mission personal. Pursuing his determination to uncover the truth, Bond and M interrogate Mr. White, who reveals that the organization that blackmailed Vesper is far more complex and dangerous than anyone had imagined.",
            "release_date": "2008-10-31",
            "adult": false,
            "backdrop_path": "/rtpwL5lFYg1SF0glIrlf8oZDzpb.jpg",
            "id": 10764,
            "genre_ids": [
                12,
                28,
                53,
                80
            ],
            "original_language": "en",
            "title": "Quantum of Solace",
            "original_title": "Quantum of Solace",
            "poster_path": "/5BzOOL7zknsZSUeJwSa9kGuzHCR.jpg",
            "vote_count": 5578
        },
        {
            "video": false,
            "id": 700,
            "popularity": 19.287,
            "overview": "James Bond is sent to investigate after a fellow “00” agent is found dead with a priceless Fabergé egg. Bond follows the mystery and uncovers a smuggling scandal and a Russian General who wants to provoke a new World War.",
            "release_date": "1983-06-05",
            "adult": false,
            "backdrop_path": "/aqvospM52NFtgFkrIbzk5nSy7Sh.jpg",
            "vote_count": 1209,
            "genre_ids": [
                12,
                28,
                53
            ],
            "vote_average": 6.3,
            "original_language": "en",
            "original_title": "Octopussy",
            "poster_path": "/cFDNFEBhnFIN5EVUM2RyHuY8Ipz.jpg",
            "title": "Octopussy"
        },
        {
            "video": false,
            "id": 660,
            "popularity": 19.722,
            "overview": "A criminal organization has obtained two nuclear bombs and are asking for a 100 million pound ransom in the form of diamonds in seven days or they will use the weapons. The secret service sends James Bond to the Bahamas to once again save the world.",
            "release_date": "1965-12-11",
            "adult": false,
            "backdrop_path": "/7mn0IFuByr9bsmlprotTdeO71Km.jpg",
            "vote_count": 1382,
            "genre_ids": [
                12,
                28,
                53
            ],
            "vote_average": 6.6,
            "original_language": "en",
            "original_title": "Thunderball",
            "poster_path": "/oJ5ybB57eidPLqZUltrVjshqwcs.jpg",
            "title": "Thunderball"
        },
        {
            "video": false,
            "id": 707,
            "popularity": 20.998,
            "overview": "A newly developed microchip designed by Zorin Industries for the British Government that can survive the electromagnetic radiation caused by a nuclear explosion has landed in the hands of the KGB. James Bond must find out how and why. His suspicions soon lead him to big industry leader Max Zorin.",
            "release_date": "1985-05-24",
            "adult": false,
            "backdrop_path": "/mHTppibjLn76PoUkARQe1cpXXWC.jpg",
            "vote_count": 1199,
            "genre_ids": [
                12,
                28,
                53
            ],
            "vote_average": 6.1,
            "original_language": "en",
            "original_title": "A View to a Kill",
            "poster_path": "/ieMTbSdYJJ7RZIW0X02NbwIAxMl.jpg",
            "title": "A View to a Kill"
        },
        {
            "video": false,
            "id": 698,
            "popularity": 16.228,
            "vote_count": 1203,
            "release_date": "1979-06-26",
            "adult": false,
            "backdrop_path": "/5F05pVtt0aGcRXH2oyBOnUQaCdY.jpg",
            "vote_average": 6.1,
            "genre_ids": [
                28,
                12,
                53,
                878
            ],
            "overview": "After Drax Industries' Moonraker space shuttle is hijacked, secret agent James Bond is assigned to investigate, traveling to California to meet the company's owner, the mysterious Hugo Drax. With the help of scientist Dr. Holly Goodhead, Bond soon uncovers Drax's nefarious plans for humanity, all the while fending off an old nemesis, Jaws, and venturing to Venice, Rio, the Amazon...and outer space.",
            "original_language": "en",
            "original_title": "Moonraker",
            "poster_path": "/1jgcSEs83R8X1bSNa2z3qFavNHY.jpg",
            "title": "Moonraker"
        },
        {
            "video": false,
            "id": 709,
            "popularity": 18.469,
            "overview": "After capturing the notorious drug lord Franz Sanchez, Bond's close friend and former CIA agent Felix Leiter is left for dead and his wife is murdered. Bond goes rogue and seeks vengeance on those responsible, as he infiltrates Sanchez's organization from the inside.",
            "release_date": "1989-07-07",
            "adult": false,
            "backdrop_path": "/p6VFbg5lhWj0RCgXf5dj6IDMPvt.jpg",
            "vote_count": 1196,
            "genre_ids": [
                12,
                28,
                53
            ],
            "vote_average": 6.2,
            "original_language": "en",
            "original_title": "Licence to Kill",
            "poster_path": "/eaHTaaAPBhO995R67mrFMsPwCdr.jpg",
            "title": "Licence to Kill"
        },
        {
            "video": false,
            "id": 370172,
            "popularity": 24.835,
            "vote_count": 0,
            "release_date": "2021-03-31",
            "adult": false,
            "backdrop_path": "/kcvKEvTWqIGMjpVJdbDVRHdIt4C.jpg",
            "overview": "Bond has left active service and is enjoying a tranquil life in Jamaica. His peace is short-lived when his old friend Felix Leiter from the CIA turns up asking for help. The mission to rescue a kidnapped scientist turns out to be far more treacherous than expected, leading Bond onto the trail of a mysterious villain armed with dangerous new technology.",
            "genre_ids": [
                28,
                53,
                12,
                9648
            ],
            "title": "No Time to Die",
            "original_language": "en",
            "original_title": "No Time to Die",
            "poster_path": "/iOPXG7q6ZqxSFp2iSY2CvgeRXyC.jpg",
            "vote_average": 0
        },
        {
            "video": false,
            "vote_average": 6.4,
            "popularity": 20.577,
            "overview": "Diamonds are stolen only to be sold again in the international market. James Bond infiltrates a smuggling mission to find out who's guilty. The mission takes him to Las Vegas where Bond meets his archenemy Blofeld.",
            "release_date": "1971-12-13",
            "adult": false,
            "backdrop_path": "/acijfEnB5kckOO8BlKe8CIQ8zHH.jpg",
            "id": 681,
            "genre_ids": [
                12,
                28,
                53
            ],
            "original_language": "en",
            "title": "Diamonds Are Forever",
            "original_title": "Diamonds Are Forever",
            "poster_path": "/uajiHcFX5sOhYB2tBuWkmizbtuU.jpg",
            "vote_count": 1264
        },
        {
            "video": false,
            "id": 657,
            "popularity": 19.936,
            "overview": "Agent 007 is back in the second installment of the James Bond series, this time battling a secret crime organization known as SPECTRE. Russians Rosa Klebb and Kronsteen are out to snatch a decoding device known as the Lektor, using the ravishing Tatiana to lure Bond into helping them. Bond willingly travels to meet Tatiana in Istanbul, where he must rely on his wits to escape with his life in a series of deadly encounters with the enemy",
            "release_date": "1963-10-11",
            "adult": false,
            "backdrop_path": "/8uNjWHsSW3TSOWDU4EY76H5MzAG.jpg",
            "vote_count": 1826,
            "genre_ids": [
                28,
                53,
                12
            ],
            "vote_average": 7.1,
            "original_language": "en",
            "original_title": "From Russia with Love",
            "poster_path": "/xTle7ThbHKQgQYKcyKZ02gfSYIe.jpg",
            "title": "From Russia with Love"
        },
        {
            "video": false,
            "id": 714,
            "popularity": 19.47,
            "overview": "A deranged media mogul is staging international incidents to pit the world's superpowers against each other. Now James Bond must take on this evil mastermind in an adrenaline-charged battle to end his reign of terror and prevent global pandemonium.",
            "release_date": "1997-12-11",
            "adult": false,
            "backdrop_path": "/yUHP5AectnhcG4dWJ53L3uQvOgu.jpg",
            "vote_count": 2022,
            "genre_ids": [
                12,
                28,
                53
            ],
            "vote_average": 6.3,
            "original_language": "en",
            "original_title": "Tomorrow Never Dies",
            "poster_path": "/yWXNZHE4k4jlQhGhBEiLwYa2rIt.jpg",
            "title": "Tomorrow Never Dies"
        },
        {
            "video": false,
            "id": 667,
            "popularity": 21.408,
            "overview": "A mysterious spacecraft captures Russian and American space capsules and brings the two superpowers to the brink of war. James Bond investigates the case in Japan and comes face to face with his archenemy Blofeld.",
            "release_date": "1967-06-13",
            "adult": false,
            "backdrop_path": "/cpZAXIYA0lkZMpAt7d1MmH8ojNV.jpg",
            "vote_count": 1289,
            "genre_ids": [
                28,
                53,
                12
            ],
            "vote_average": 6.6,
            "original_language": "en",
            "original_title": "You Only Live Twice",
            "poster_path": "/gIhS0VC7YzI8pj6zfS3KxsxV0dS.jpg",
            "title": "You Only Live Twice"
        },
        {
            "video": false,
            "vote_average": 6,
            "popularity": 16.947,
            "vote_count": 2374,
            "release_date": "2002-11-17",
            "adult": false,
            "backdrop_path": "/orI5mvpksYIlhJqzdmeipys6sHQ.jpg",
            "overview": "Bond takes on a North Korean leader who undergoes DNA replacement procedures that allow him to assume different identities. American agent, Jinx Johnson assists Bond in his attempt to thwart the villain's plans to exploit a satellite that is powered by solar energy.",
            "genre_ids": [
                12,
                28,
                53
            ],
            "id": 36669,
            "original_language": "en",
            "original_title": "Die Another Day",
            "poster_path": "/10gf29n2TrYBYfvCPKWxasa9BnZ.jpg",
            "title": "Die Another Day"
        }
    ]
}
